FIP606 - Aula 4
…
              22L,          "China",       1L,
              23L,          "Egypt",       1L,
              24L,        "Finland",       1L,
              25L,          "India",       1L,
              26L,          "Italy",       1L,
              27L,       "Malaysia",       1L,
              28L,       "Pakistan",       1L,
              29L,         "Poland",       1L,
              30L,      "Singapore",       1L,
              31L,    "Timor-Leste",       1L,
              32L,        "Uruguay",       1L
             )
visitas

# A tibble: 32 × 3
   codigo país             n2
    <int> <chr>         <int>
 1      1 Brazil         4303
 2      2 Mozambique       43
 3      3 Portugal         33
 4      4 United States    23
 5      5 Angola           19
 6      6 Spain            16
 7      7 (not set)        12
 8      8 Colombia          8
 9      9 Germany           5
10     10 Hungary           5
# ℹ 22 more rows
…
